<?xml version="1.0" standalone="no"?>
<!DOCTYPE svg PUBLIC "-//W3C//DTD SVG 20010904//EN"
 "http://www.w3.org/TR/2001/REC-SVG-20010904/DTD/svg10.dtd">
<svg version="1.0" xmlns="http://www.w3.org/2000/svg"
 width="1291.000000pt" height="729.000000pt" viewBox="0 0 1291.000000 729.000000"
 preserveAspectRatio="xMidYMid meet">

<g transform="translate(0.000000,729.000000) scale(0.100000,-0.100000)"
fill="#000000" stroke="none">
<path d="M1990 3625 l0 -2355 4430 0 4430 0 0 2355 0 2355 -4430 0 -4430 0 0
-2355z m3700 806 l0 -178 53 14 c74 20 258 28 344 14 159 -25 244 -80 279
-182 26 -73 26 -302 0 -368 -37 -100 -105 -148 -246 -177 -100 -20 -305 -15
-382 9 -41 13 -48 13 -48 1 0 -11 -17 -14 -70 -14 l-70 0 0 530 0 530 70 0 70
0 0 -179z m-439 -170 c163 -52 219 -158 206 -392 -12 -203 -73 -275 -268 -315
-111 -22 -304 -15 -400 15 -84 26 -150 83 -176 149 -26 68 -26 326 0 394 20
52 77 109 134 134 112 48 375 56 504 15z m-1614 8 c47 -8 77 -21 109 -46 l45
-34 34 29 c56 50 92 57 295 57 183 0 186 0 243 -28 60 -30 96 -69 117 -127 8
-23 14 -124 17 -302 l5 -268 -70 0 -71 0 -3 244 c-3 280 -4 281 -94 326 -44
23 -61 25 -169 25 -108 0 -125 -2 -169 -25 -90 -45 -91 -46 -94 -326 l-4 -244
-63 0 -64 0 -3 244 c-3 280 -4 281 -94 326 -44 23 -61 25 -169 25 -108 0 -125
-2 -169 -25 -90 -45 -91 -46 -94 -326 l-3 -244 -69 0 -70 0 0 350 0 350 70 0
c56 0 70 -3 70 -15 0 -14 3 -13 25 1 53 35 99 43 239 44 77 0 168 -5 203 -11z
m2980 -86 c-4 -54 -7 -218 -7 -365 l0 -268 -65 0 -65 0 0 365 0 365 72 0 71 0
-6 -97z"/>
<path d="M5807 4140 c-96 -18 -120 -70 -115 -245 3 -135 13 -161 71 -192 48
-27 345 -26 399 0 54 27 73 83 72 212 0 158 -27 207 -123 225 -60 11 -246 12
-304 0z"/>
<path d="M4863 4140 c-103 -22 -118 -51 -118 -225 0 -148 9 -177 65 -209 32
-19 52 -21 210 -21 243 0 261 10 282 154 13 94 -1 211 -30 250 -34 46 -66 55
-222 57 -80 2 -164 -1 -187 -6z"/>
</g>
</svg>
